\relax 
\catcode `"\active 
\select@language{danish}
\@writefile{toc}{\select@language{danish}}
\@writefile{lof}{\select@language{danish}}
\@writefile{lot}{\select@language{danish}}
\@writefile{toc}{\contentsline {section}{\numberline {1}}{1}}
\@writefile{toc}{\contentsline {section}{\numberline {2}}{1}}
\@writefile{toc}{\contentsline {section}{\numberline {3}}{1}}
